;Project Name;Ortho_Folder;Ortho_Name;Train_Folder;Train_Name;Color;Size;Pattern;GSD;ortho_path;train_path;Area;x_width;y_width;size;area
0;ABP F0060B;Z:\KEY ACCOUNTS\ABP_AUS\2003_ABP_SeedlingEastAustralia\F0060B\3_ORTHO;F0060B-1.tif;Z:\KEY ACCOUNTS\ABP_AUS\2003_ABP_SeedlingEastAustralia\F0060B\4_GIS\Trainingsdaten;2003_ABP_Seedlings_F0060B_1_Trainingsdata_AG_v1.shp;Sunny; Light colored seedlings;Very small to large;Regularly spaced too many weeds;E:\Ortho\F0060B-1.tif;E:\Shape\2003_ABP_Seedlings_F0060B_1_Trainingsdata_AG_v1.shp;3958632;60234;95301;3514707;3958632.1181178307
1;ABP F0060B;Z:\KEY ACCOUNTS\ABP_AUS\2003_ABP_SeedlingEastAustralia\F0060B\3_ORTHO;F0060B-2.tif;Z:\KEY ACCOUNTS\ABP_AUS\2003_ABP_SeedlingEastAustralia\F0060B\4_GIS\Trainingsdaten;ABP_F0060B_2_Trainingsdata_SJ_v1.shp;Sunny; Light colored seedlings;Very small to large;Regularly spaced too many weeds;E:\Ortho\F0060B-2.tif;E:\Shape\ABP_F0060B_2_Trainingsdata_SJ_v1.shp;1689372;51772;55937;3160845;1689372.7602253598
2;ABP F0074B;Z:\KEY ACCOUNTS\ABP_AUS\2003_ABP_SeedlingEastAustralia\F0074B\3_ORTHO;F0074B.tif;Z:\KEY ACCOUNTS\ABP_AUS\2003_ABP_SeedlingEastAustralia\F0074B\4_GIS\Trainingsdaten;ABP_F0074B_Trainingsdata_SJ_v1.shp;Cloudy; Dull colored seedlings;Very small to medium seedlings;Regularly spaced too many weeds;E:\Ortho\F0074B.tif;E:\Shape\ABP_F0074B_Trainingsdata_SJ_v1.shp;5707155;89611;97251;7017068;5707155.828747195
3;ABP F0080A;Z:\KEY ACCOUNTS\ABP_AUS\2003_ABP_SeedlingEastAustralia\F0080A\3_ORTHO;F0080A.tif;Z:\KEY ACCOUNTS\ABP_AUS\2003_ABP_SeedlingEastAustralia\F0080A\4_GIS\Trainingsdaten;ABP_F0080A_Trainingsdata_AG_modifiedSJ_v1.shp;Overcast; Dark colored seedlings;Very small to medium seedlings;Irregularly spaced too many weeds;E:\Ortho\F0080A.tif;E:\Shape\ABP_F0080A_Trainingsdata_AG_modifiedSJ_v1.shp;988694;35057;41941;1835675;988694.478787839
4;ABP F0081A;Z:\KEY ACCOUNTS\ABP_AUS\2003_ABP_SeedlingEastAustralia\F0081A\3_ORTHO;F0081A.tif;Z:\KEY ACCOUNTS\ABP_AUS\2003_ABP_SeedlingEastAustralia\F0081A\4_GIS\Trainingsdaten;ABP_F0081A_Trainingsdata_SJ_v1.shp;Sunny; Light to mild colored seedlings;Very small to large;Regularly spaced less weeds;E:\Ortho\F0081A.tif;E:\Shape\ABP_F0081A_Trainingsdata_SJ_v1.shp;1407641;36243;46117;1829535;1407641.21833579
5;ABP F0088G;Z:\KEY ACCOUNTS\ABP_AUS\2003_ABP_SeedlingEastAustralia\F0088G\3_ORTHO;F0088G.tif;Z:\KEY ACCOUNTS\ABP_AUS\2003_ABP_SeedlingEastAustralia\F0088G\4_GIS\Trainingsdaten;ABP_F0088G_Trainingsdata_SJ_v1.shp;Sunny;Light colored seedlings (nearly white);Very small to medium seedlings;irregularly spaced too many weeds and mostly similar colors;E:\Ortho\F0088G.tif;E:\Shape\ABP_F0088G_Trainingsdata_SJ_v1.shp;1773672;58384;51411;3435293;1773672.2254447923
6;ABP F0097A;Z:\KEY ACCOUNTS\ABP_AUS\2003_ABP_SeedlingEastAustralia\F0097A\3_ORTHO;F0097A.tif;Z:\KEY ACCOUNTS\ABP_AUS\2003_ABP_SeedlingEastAustralia\F0097A\4_GIS\Trainingsdaten;ABP_F0097A_Trainingsdata_SJ_v1.shp;Sunny; Light to mild colored seedlings;Medium size seedlings;Regularly spaced too many weeds and irregular shape;E:\Ortho\F0097A.tif;E:\Shape\ABP_F0097A_Trainingsdata_SJ_v1.shp;3638257;56518;66831;3005765;3638257.492564048
7;ABP F0106B;Z:\KEY ACCOUNTS\ABP_AUS\2003_ABP_SeedlingEastAustralia\F0106B\3_ORTHO;F0106B.tif;Z:\KEY ACCOUNTS\ABP_AUS\2003_ABP_SeedlingEastAustralia\F0106B\4_GIS\Trainingsdaten;ABP_F0106B_Trainingsdata_SJ_v1.shp;Cloudy; Dull colored seedlings( similar to weed);Small to medium seedlings;Regularly spaced too much weeds and irregular shape;E:\Ortho\F0106B.tif;E:\Shape\ABP_F0106B_Trainingsdata_SJ_v1.shp;2824070;71969;58502;5935423;2824070.053037088
8;ABP F0173B;Z:\KEY ACCOUNTS\ABP_AUS\2003_ABP_SeedlingEastAustralia\F0173B\3_ORTHO;F0173B-1.tif;Z:\KEY ACCOUNTS\ABP_AUS\2003_ABP_SeedlingEastAustralia\F0173B\4_GIS\Trainingsdaten;2003_SeedlingEastAustralia_F0173B_1_Trainingsdata_AG_v2.shp;Sunny; Light colored seedlings;Very small to medium seedlings;Regularly spaced less weeds and irregular shape;E:\Ortho\F0173B-1.tif;E:\Shape\2003_SeedlingEastAustralia_F0173B_1_Trainingsdata_AG_v2.shp;3990744;79450;82207;4529949;3990744.7835463923
9;ABP F0180B;Z:\KEY ACCOUNTS\ABP_AUS\2003_ABP_SeedlingEastAustralia\F0180B\3_ORTHO;F0180B.tif;Z:\KEY ACCOUNTS\ABP_AUS\2003_ABP_SeedlingEastAustralia\F0180B\4_GIS\Trainingsdaten;2003_ABP_SeedlingEastAustralia_F0178B_1_Trainingsdata_SH_v2.shp;Bright; Light colored seedlings;Very small to medium seedlings;Regularly spaced less weeds and irregular shape;E:\Ortho\F0180B.tif;E:\Shape\2003_ABP_SeedlingEastAustralia_F0178B_1_Trainingsdata_SH_v2.shp;2106534;43608;89932;3398424;2106534.7536957813
10;ABP F0203C;Z:\KEY ACCOUNTS\ABP_AUS\2003_ABP_SeedlingEastAustralia\F0203C\3_ORTHO;F0203C-1.tif;Z:\KEY ACCOUNTS\ABP_AUS\2003_ABP_SeedlingEastAustralia\F0203C\4_GIS\Trainingsdaten;2003_SeedlingEastAustralia_F0203C_1_Trainingsdata_AG_v1.shp;Sunny; Bright and dark green colored seedling;Very small to large seedlings;Regularly spaced less weeds and regularly shaped;E:\Ortho\F0203C-1.tif;E:\Shape\2003_SeedlingEastAustralia_F0203C_1_Trainingsdata_AG_v1.shp;4651574;84660;61802;10897362;4651574.116472372
11;ABP F0233B;Z:\KEY ACCOUNTS\ABP_AUS\2003_ABP_SeedlingEastAustralia\F0233B\3_ORTHO;F0233B-1.tif;Z:\KEY ACCOUNTS\ABP_AUS\2003_ABP_SeedlingEastAustralia\F0233B\4_GIS\Trainingsdaten;2003_ABP_SeedlingEastAustralia_F0233B_1_Trainingsdata_SJ_v3.shp;Sunny; Light colored seedlings (similar to weeds);Very small to medium seedlings;Irregularly spaced more weeds and irregularly shaped;E:\Ortho\F0233B-1.tif;E:\Shape\2003_ABP_SeedlingEastAustralia_F0233B_1_Trainingsdata_SJ_v3.shp;282565;42183;11283;1072870;282565.9562217409
12;ABP F0233B;Z:\KEY ACCOUNTS\ABP_AUS\2003_ABP_SeedlingEastAustralia\F0233B\3_ORTHO;F0233B-3.tif;Z:\KEY ACCOUNTS\ABP_AUS\2003_ABP_SeedlingEastAustralia\F0233B\4_GIS\Trainingsdaten;2003_ABP_SeedlingEastAustralia_F0233B_3_Trainingsdata_SJ_v1.shp;Sunny; Light colored seedlings (similar to weeds);Very small to medium seedlings;Irregularly spaced more weeds and irregularly shaped;E:\Ortho\F0233B-3.tif;E:\Shape\2003_ABP_SeedlingEastAustralia_F0233B_3_Trainingsdata_SJ_v1.shp;329025;35224;14536;925765;329025.2553696268
13;ABP F0233B;Z:\KEY ACCOUNTS\ABP_AUS\2003_ABP_SeedlingEastAustralia\F0233B\3_ORTHO;F0233B-4.tif;Z:\KEY ACCOUNTS\ABP_AUS\2003_ABP_SeedlingEastAustralia\F0233B\4_GIS\Trainingsdaten;2003_ABP_SeedlingEastAustralia_F0233B_4_Trainingsdaten_AG_v2.shp;Sunny; Light colored seedlings (similar to weeds);Very small to medium seedlings;Irregularly spaced more weeds and irregularly shaped;E:\Ortho\F0233B-4.tif;E:\Shape\2003_ABP_SeedlingEastAustralia_F0233B_4_Trainingsdaten_AG_v2.shp;731983;63221;16543;1445418;731983.0293104157
14;ABP F0253B;Z:\KEY ACCOUNTS\ABP_AUS\2003_ABP_SeedlingEastAustralia\F0253B\3_ORTHO;F0253B.tif;Z:\KEY ACCOUNTS\ABP_AUS\2003_ABP_SeedlingEastAustralia\F0253B\4_GIS\Trainingsdaten;2003_SeedlingEastAustralia_F0253B_Trainingsdata_AG_v1.shp;Cloudy; Light seedlings;Very small to medium seedlings;Regularly spaced some weeds and irregular shaped;E:\Ortho\F0253B.tif;E:\Shape\2003_SeedlingEastAustralia_F0253B_Trainingsdata_AG_v1.shp;2964843;70559;59094;3735993;2964843.558753953
15;ABP F0256F;Z:\KEY ACCOUNTS\ABP_AUS\2003_ABP_SeedlingEastAustralia\F0256F\3_ORTHO;F0256F.tif;Z:\KEY ACCOUNTS\ABP_AUS\2003_ABP_SeedlingEastAustralia\F0256F\4_GIS\Trainingsdaten;Trainingsdata.shp;Cloudy; Bright and light seedlings;Very small to medium seedlings;Regularly spaced less weeds and regularly shaped;E:\Ortho\F0256F.tif;E:\Shape\Trainingsdata.shp;16573845;125573;145709;20365687;16573845.730889333
16;ABP F0326D;Z:\KEY ACCOUNTS\ABP_AUS\2003_ABP_SeedlingEastAustralia\F0326D\3_ORTHO;F0326D.tif;Z:\KEY ACCOUNTS\ABP_AUS\2003_ABP_SeedlingEastAustralia\F0326D\4_GIS\Trainingsdaten;2003_ABP_SeedlingsEastAustralia_F0326D_Trainingsdata_AG_v1.shp;Sunny; Light and dark green colored seedling (seedling color similar to the weeds);Very small to small seedlings;Regularly spaced more weeds and irregular shaped;E:\Ortho\F0326D.tif;E:\Shape\2003_ABP_SeedlingsEastAustralia_F0326D_Trainingsdata_AG_v1.shp;1409753;61753;37172;3866090;1409753.5262800797
17;ABP F0342B;Z:\KEY ACCOUNTS\ABP_AUS\2003_ABP_SeedlingEastAustralia\F0342B\3_ORTHO;F0342B.tif;Z:\KEY ACCOUNTS\ABP_AUS\2003_ABP_SeedlingEastAustralia\F0342B\4_GIS\Trainingsdaten;ABP_F0342B_Trainingsdata_SJ_v1.shp;Sunny; Light colored seedlings;Very small to medium seedlings;Regularly spaced more weeds and irregular shaped;E:\Ortho\F0342B.tif;E:\Shape\ABP_F0342B_Trainingsdata_SJ_v1.shp;2584667;80630;47826;7893834;2584667.5502966493
18;ABP F0344I;Z:\KEY ACCOUNTS\ABP_AUS\2003_ABP_SeedlingEastAustralia\F0344I\3_ORTHO;F0344I_F0372D.tif;Z:\KEY ACCOUNTS\ABP_AUS\2003_ABP_SeedlingEastAustralia\F0344I\4_GIS\Trainingsdaten;ABP_F0344I_F0372D_Trainingsdata_SJ_v1.shp;Cloudy; Light colored seedlings and different color;Medium to large seedlings;Irregularly spaced less weeds and irregularly shaped;E:\Ortho\F0344I_F0372D.tif;E:\Shape\ABP_F0344I_F0372D_Trainingsdata_SJ_v1.shp;1641601;60013;43762;2208512;1641601.279467091
19;ABP F0364C;Z:\KEY ACCOUNTS\ABP_AUS\2003_ABP_SeedlingEastAustralia\F0364C\3_ORTHO;F0364C-1_north.tif;Z:\KEY ACCOUNTS\ABP_AUS\2003_ABP_SeedlingEastAustralia\F0364C\4_GIS\Trainingsdaten;2003_SeedlingsEastAustralia_F0364C_1_north_Trainingsdata_AG_v1.shp;Cloudy; Mild and dark green colored seedlings( Seedlings are similar to weed);Small to medium seedlings;Regularly spaced more weeds and regularly shaped;E:\Ortho\F0364C-1_north.tif;E:\Shape\2003_SeedlingsEastAustralia_F0364C_1_north_Trainingsdata_AG_v1.shp;3675640;61735;61220;8681910;3675640.1434776057
20;ABP F0388B;Z:\KEY ACCOUNTS\ABP_AUS\2003_ABP_SeedlingEastAustralia\F0388B\3_ORTHO;F0388B-2.tif;Z:\KEY ACCOUNTS\ABP_AUS\2003_ABP_SeedlingEastAustralia\F0388B\4_GIS\Trainingsdaten;2003_ABP_SeedlingEastAustralia_F0388B_2_TrainingsData_SJ_v1.shp;Overcast; Dark colored seedlings;Very small to medium seedlings;Regularly spaced more weeds and irregular shaped;E:\Ortho\F0388B-2.tif;E:\Shape\2003_ABP_SeedlingEastAustralia_F0388B_2_TrainingsData_SJ_v1.shp;823236;35541;30187;1589129;823236.8731156049
21;ABP F0388C;Z:\KEY ACCOUNTS\ABP_AUS\2003_ABP_SeedlingEastAustralia\F0388C\3_ORTHO;F0388C.tif;Z:\KEY ACCOUNTS\ABP_AUS\2003_ABP_SeedlingEastAustralia\F0388C\4_GIS\Trainingsdaten;ABP_F0388C_Trainingsdata.shp;Cloudy; Light colored seedlings ( Whitish);Small to large seedlings;Regularly spaced less weeds and regularly shaped;E:\Ortho\F0388C.tif;E:\Shape\ABP_F0388C_Trainingsdata.shp;749924;36904;30249;1497702;749924.5923754195
22;ABP F0439C;Z:\KEY ACCOUNTS\ABP_AUS\2003_ABP_SeedlingEastAustralia\F0439C\3_ORTHO;F0439C.tif;Z:\KEY ACCOUNTS\ABP_AUS\2003_ABP_SeedlingEastAustralia\F0439C\4_GIS\Trainingsdaten;ABP_F0439C_Trainingsdata_SJ_v1.shp;Sunny; Light and dark green colored seedling (seedling color similar to the weeds);Very small to medium seedlings;Regularly spaced less weeds and regularly shaped;E:\Ortho\F0439C.tif;E:\Shape\ABP_F0439C_Trainingsdata_SJ_v1.shp;3482193;59379;84320;6136914;3482193.5359076886
23;ABP F0461B;Z:\KEY ACCOUNTS\ABP_AUS\2003_ABP_SeedlingEastAustralia\F0461B\3_ORTHO;F0461B.tif;Z:\KEY ACCOUNTS\ABP_AUS\2003_ABP_SeedlingEastAustralia\F0461B\4_GIS\Trainingsdaten;2003_ABP_SeedlingEastAustralia_F0461B_Trainingdata_AG_v1.shp;Overcast; Dark colored seedlings ( Similar to weed);Very small to small seedlings;Irregularly spaced more weeds and irregularly shaped;E:\Ortho\F0461B.tif;E:\Shape\2003_ABP_SeedlingEastAustralia_F0461B_Trainingdata_AG_v1.shp;2799910;75643;57738;5627131;2799910.5799024557
24;ABP F0496C;Z:\KEY ACCOUNTS\ABP_AUS\2003_ABP_SeedlingEastAustralia\F0496C\3_ORTHO;F0496C_Ortho.tif;Z:\KEY ACCOUNTS\ABP_AUS\2003_ABP_SeedlingEastAustralia\F0496C\4_GIS\Trainingsdaten;2003_ABP_SeedlingEastAustralia_F0496C_Trainingsdata_AG_v2.shp;Overcast; Dark green colored seedling (Similar to weed);Very small to medium seedlings;Irregularly spaced more weeds and irregularly shaped;E:\Ortho\F0496C_Ortho.tif;E:\Shape\2003_ABP_SeedlingEastAustralia_F0496C_Trainingsdata_AG_v2.shp;2962945;59468;70498;10355694;2962945.4560702704
25;ABP F0573B;Z:\KEY ACCOUNTS\ABP_AUS\2003_ABP_SeedlingEastAustralia\F0573B\3_ORTHO;F0573B.tif;Z:\KEY ACCOUNTS\ABP_AUS\2003_ABP_SeedlingEastAustralia\F0573B\4_GIS\Trainingsdaten;2003_ABP_SeedlingEastAustralia_Trainingsdata_AG_v1.shp;Sunny; light green colored seedling (Similar to weed);Small to medium seedlings;Regularly spaced less weeds and regularly shaped;E:\Ortho\F0573B.tif;E:\Shape\2003_ABP_SeedlingEastAustralia_Trainingsdata_AG_v1.shp;7086850;93883;102906;7305951;7086850.421888803
26;ABP F0956A;Z:\KEY ACCOUNTS\ABP_AUS\2003_ABP_SeedlingEastAustralia\F0956A\3_ORTHO;F0956A.tif;Z:\KEY ACCOUNTS\ABP_AUS\2003_ABP_SeedlingEastAustralia\F0956A\4_GIS\Trainingsdaten;2003_ABP_SeedlingEastAustralia_F0956A_trainingsdata_AG.shp;Sunny; light colored seedling;Very small to large seedlings;Regularly spaced more weeds and irregular shaped;E:\Ortho\F0956A.tif;E:\Shape\2003_ABP_SeedlingEastAustralia_F0956A_trainingsdata_AG.shp;2802215;62763;59240;3975294;2802215.4814063828
27;ABP F9007B;Z:\KEY ACCOUNTS\ABP_AUS\2003_ABP_SeedlingEastAustralia\F9007B\3_ORTHO;F9007B.tif;Z:\KEY ACCOUNTS\ABP_AUS\2003_ABP_SeedlingEastAustralia\F9007B\4_GIS\Trainingsdaten;2003_ABP_SeedlingEastAustralia_F9007B_Trainingsdata_AG_v2.shp;Cloudy; light colored seedling (Greenish);Very small to small seedlings;Regularly spaced more weeds and irregular shaped;E:\Ortho\F9007B.tif;E:\Shape\2003_ABP_SeedlingEastAustralia_F9007B_Trainingsdata_AG_v2.shp;1224014;39665;42066;3633636;1224014.986461767
28;ABP F9024B;Z:\KEY ACCOUNTS\ABP_AUS\2003_ABP_SeedlingEastAustralia\F9024B\3_ORTHO;F9024B_ortho.tif;Z:\KEY ACCOUNTS\ABP_AUS\2003_ABP_SeedlingEastAustralia\F9024B\4_GIS\Trainingsdaten;ABP_F9024B_Trainingsdata_SJ_v1.shp;Sunny; Light to mild colored seedlings;Very small to large seedlings;Regularly spaced less weeds and regularly shaped;E:\Ortho\F9024B_ortho.tif;E:\Shape\ABP_F9024B_Trainingsdata_SJ_v1.shp;9938929;124592;122112;9362753;9938929.637236046
29;ABP F9028B;Z:\KEY ACCOUNTS\ABP_AUS\2003_ABP_SeedlingEastAustralia\F9028B\3_ORTHO;F9028B.tif;Z:\KEY ACCOUNTS\ABP_AUS\2003_ABP_SeedlingEastAustralia\F9028B\4_GIS\Trainingsdaten;ABP_F9028B_Trainingsdata_SJ_v1.shp;Sunny; light to dark colored seedling;Very small to medium seedlings;Regularly spaced more weeds and regularly shaped;E:\Ortho\F9028B.tif;E:\Shape\ABP_F9028B_Trainingsdata_SJ_v1.shp;5645788;83216;111387;3797906;5645788.63963966
30;ABP F9058B;Z:\KEY ACCOUNTS\ABP_AUS\2003_ABP_SeedlingEastAustralia\F9058B\3_ORTHO;F9058B.tif;Z:\KEY ACCOUNTS\ABP_AUS\2003_ABP_SeedlingEastAustralia\F9058B\4_GIS\Trainingsdaten;ABP_F9058B_Trainingsdata_SJ_v2.shp;Sunny; Light to mild colored seedlings;Very small to large seedlings;Regularly spaced less weeds and regularly shaped;E:\Ortho\F9058B.tif;E:\Shape\ABP_F9058B_Trainingsdata_SJ_v2.shp;1307289;28055;60308;2378189;1307289.2171714685
31;ABP F9105B;Z:\KEY ACCOUNTS\ABP_AUS\2003_ABP_SeedlingEastAustralia\F9105B\3_ORTHO;F9105B.tif;Z:\KEY ACCOUNTS\ABP_AUS\2003_ABP_SeedlingEastAustralia\F9105B\4_GIS\Trainingsdaten;ABP_F9105B_Trainingsdata_SJ_v1.shp;Cloudy;Very small to small seedlings;Regularly spaced less weeds and irregularly shaped;Regularly spaced less weeds and regularly shaped;E:\Ortho\F9105B.tif;E:\Shape\ABP_F9105B_Trainingsdata_SJ_v1.shp;2593652;61942;59963;4726477;2593652.0705583133
32;ABP F0166C;Z:\KEY ACCOUNTS\ABP_AUS\2003_ABP_SeedlingEastAustralia\xF0166C\3_ORTHO;finnigan 2019plt.tif;Z:\KEY ACCOUNTS\ABP_AUS\2003_ABP_SeedlingEastAustralia\xF0166C\4_GIS\Trainingsdaten;2003_ABP_SeedlingEastAustralia_xF0166C_Trainingsdata_AG_v2.shp;Sunny; light to mild colored seedling( greenish);Very small to large seedlings;Regularly spaced less weeds and regularly shaped;E:\Ortho\finnigan 2019plt.tif;E:\Shape\2003_ABP_SeedlingEastAustralia_xF0166C_Trainingsdata_AG_v2.shp;0;105503;100454;19953132;0.0007383390221172116
