C,Kernel,Gamma,Score
1,rbf,0.001,0.2593976846830679
1,rbf,0.0005,0.3039206784238222
1,rbf,0.0001,0.6659928911522701
1,rbf,5e-05,0.7931811761570252
1,rbf,1e-05,0.9421259452415264
1,rbf,5e-06,0.9457194706410021
1,rbf,1e-06,0.9495843737775441
1,rbf,1e-07,0.9168873961326023
1,rbf,1e-08,0.7570160866439034
10,rbf,0.001,0.2690958289606354
10,rbf,0.0005,0.3138453121527192
10,rbf,0.0001,0.689191803181117
10,rbf,5e-05,0.8054915785350568
10,rbf,1e-05,0.9453525976103122
10,rbf,5e-06,0.9531609750571425
10,rbf,1e-06,0.9547066033329217
10,rbf,1e-07,0.9496258394012305
10,rbf,1e-08,0.9179249304181055
100,rbf,0.001,0.2690958289606354
100,rbf,0.0005,0.3138453121527192
100,rbf,0.0001,0.689191803181117
100,rbf,5e-05,0.8054915785350568
100,rbf,1e-05,0.9433567211095188
100,rbf,5e-06,0.9491636150304378
100,rbf,1e-06,0.9526843115622067
100,rbf,1e-07,0.9519570111851291
100,rbf,1e-08,0.9410208942786099
1000,rbf,0.001,0.2690958289606354
1000,rbf,0.0005,0.3138453121527192
1000,rbf,0.0001,0.689191803181117
1000,rbf,5e-05,0.8054915785350568
1000,rbf,1e-05,0.9433567211095188
1000,rbf,5e-06,0.9491636150304378
1000,rbf,1e-06,0.9458911143040836
1000,rbf,1e-07,0.957486727452643
1000,rbf,1e-08,0.9518623628231898
